The Tidyverse
…
select() works in a few ways.

First, you can just pick the names of the variables you want.

shs %>% 
  select(TX001, HH_TotInc)

# A tibble: 12,492 × 2
   TX001 HH_TotInc
   <dbl>     <dbl>
 1 13500    100050
 2 21500    114250
 3  3950     52000
 4     0     56050
 5   600     46500
 6 14700    133150
 7 27100    158000
 8  3900     38300
 9   950     38000
10     0     18000
# ℹ 12,482 more rows

dplyr offers a suite of helpers to make more complex selection possible. For example, you can choose a range of variables.

Here we select the first 10 variables.

shs %>% 
  select(1:10)

# A tibble: 12,492 × 10
   CaseID WeightC Prov      HHType6 HHSize  P0to4YN P5to17YN P18to24YN P25to64YN
   <chr>    <dbl> <chr+lbl> <chr+l> <chr+l> <chr+l> <chr+lb> <chr+lbl> <chr+lbl>
 1 000010   270.  14 [Atla… 3 [Cou… 4 [4 o… 1 [Yes] 1 [Yes]  2 [No]    1 [Yes]  
 2 000020  1954.  24 [Queb… 3 [Cou… 4 [4 o… 1 [Yes] 1 [Yes]  2 [No]    1 [Yes]  
 3 000030   161.  47 [Sask… 2 [Cou… 2 [2]   2 [No]  2 [No]   2 [No]    1 [Yes]  
 4 000040    50.3 63 [Terr… 2 [Cou… 2 [2]   2 [No]  2 [No]   2 [No]    1 [Yes]  
 5 000050   325.  14 [Atla… 2 [Cou… 2 [2]   2 [No]  2 [No]   2 [No]    2 [No]   
 6 000060  2158.  59 [Brit… 3 [Cou… 4 [4 o… 2 [No]  2 [No]   1 [Yes]   1 [Yes]  
 7 000070  3466.  35 [Onta… 2 [Cou… 2 [2]   2 [No]  2 [No]   2 [No]    1 [Yes]  
 8 000080   704.  48 [Albe… 1 [One… 1 [1]   2 [No]  2 [No]   2 [No]    2 [No]   
 9 000090   345.  14 [Atla… 2 [Cou… 2 [2]   2 [No]  2 [No]   2 [No]    2 [No]   
10 000100   220.  14 [Atla… 1 [One… 1 [1]   2 [No]  2 [No]   2 [No]    2 [No]   
# ℹ 12,482 more rows
# ℹ 1 more variable: P65to74YN <chr+lbl>

Here, we can select specific variables

shs %>% 
  #Select the 1st, 5th and 7th variable
  select(c(1,5,7))

# A tibble: 12,492 × 3
   CaseID HHSize        P5to17YN 
   <chr>  <chr+lbl>     <chr+lbl>
 1 000010 4 [4 or more] 1 [Yes]  
 2 000020 4 [4 or more] 1 [Yes]  
 3 000030 2 [2]         2 [No]   
 4 000040 2 [2]         2 [No]   
 5 000050 2 [2]         2 [No]   
 6 000060 4 [4 or more] 2 [No]   
 7 000070 2 [2]         2 [No]   
 8 000080 1 [1]         2 [No]   
 9 000090 2 [2]         2 [No]   
10 000100 1 [1]         2 [No]   
# ℹ 12,482 more rows

Things get really useful with some other helpers. Note that there are others, but these are the ones that are really useful.

starts_with()

ends_with()

contains()

You can pick variables that start with a string:

shs %>% 
  select(starts_with('TR'))

# A tibble: 12,492 × 17
   TR001_C TR002_C TR003 TR004 TR008 TR010 TR020_C TR021 TR030_C TR031 TR032
     <dbl>   <dbl> <dbl> <dbl> <dbl> <dbl>   <dbl> <dbl>   <dbl> <dbl> <dbl>
 1    1634    1634     0     0     0     0       0     0    1634   170  1224
 2    5927    5927     0     0     0     0       0     0    5927   580  1512
 3    6005    6005     0     0     0     0       0     0    6005  1945     0
 4    5538    1634     0     0     0     0       0     0    1634    50   492
 5   13916   13916 12000 12000     0     0       0     0    1916     0  1224
 6   33816   32620 28000 28000     0     0     700   700    3920  3470     0
 7    6140    4820     0     0     0     0     200   200    4620   120  3600
 8    1467    1467     0     0     0     0       0     0    1467    75  1392
 9    1836    1836     0     0     0     0       0     0    1836     0   636
10       0       0     0     0     0     0       0     0       0     0     0
# ℹ 12,482 more rows
# ℹ 6 more variables: TR033 <dbl>, TR034 <dbl>, TR035 <dbl>, TR038 <dbl>,
#   TR039 <dbl>, TR050 <dbl>

Or end with a string:

shs %>% 
  select(ends_with('_C'))

# A tibble: 12,492 × 35
   CC001_C CL001_C CL010_C CS001_C ED002_C ED030_C HC001_C HC002_C HE001_C
     <dbl>   <dbl>   <dbl>   <dbl>   <dbl>   <dbl>   <dbl>   <dbl>   <dbl>
 1    9984    3520       0    1012    7550       0    2500     610     200
 2    3792    4040       0    2508     180      80    3655     660    1500
 3       0    2000       0    1572       0       0    1300    1300       0
 4       0    4600       0    2859       0       0       0       0     525
 5       0     300       0    1236       0       0     489     489       0
 6       0    7580       0    2556    3850     150    8235    6800       0
 7       0     600     120    4656       0       0      80      80    4625
 8       0     600       0     852       0       0     320     320       0
 9       0       0       0    2916       0       0    3600    3600       0
10       0     900       0     360       0       0     266     266       0
# ℹ 12,482 more rows
# ℹ 26 more variables: HE002_C <dbl>, HE010_C <dbl>, HF001_C <dbl>,
#   HF002_C <dbl>, HO001_C <dbl>, HO003_C <dbl>, ME001_C <dbl>, ME010_C <dbl>,
#   PC001_C <dbl>, RE001_C <dbl>, RE002_C <dbl>, RE010_C <dbl>, RE016_C <dbl>,
#   RE040_C <dbl>, RE041_C <dbl>, RE060_C <dbl>, RE061_C <dbl>, RO001_C <dbl>,
#   RV001_C <dbl>, RV010_C <dbl>, TC001_C <dbl>, TE001_C <dbl>, TR001_C <dbl>,
#   TR002_C <dbl>, TR020_C <dbl>, TR030_C <dbl>

R contain a string:

shs %>% 
  select(contains('TR'))

# A tibble: 12,492 × 17
   TR001_C TR002_C TR003 TR004 TR008 TR010 TR020_C TR021 TR030_C TR031 TR032
     <dbl>   <dbl> <dbl> <dbl> <dbl> <dbl>   <dbl> <dbl>   <dbl> <dbl> <dbl>
 1    1634    1634     0     0     0     0       0     0    1634   170  1224
 2    5927    5927     0     0     0     0       0     0    5927   580  1512
 3    6005    6005     0     0     0     0       0     0    6005  1945     0
 4    5538    1634     0     0     0     0       0     0    1634    50   492
 5   13916   13916 12000 12000     0     0       0     0    1916     0  1224
 6   33816   32620 28000 28000     0     0     700   700    3920  3470     0
 7    6140    4820     0     0     0     0     200   200    4620   120  3600
 8    1467    1467     0     0     0     0       0     0    1467    75  1392
 9    1836    1836     0     0     0     0       0     0    1836     0   636
10       0       0     0     0     0     0       0     0       0     0     0
# ℹ 12,482 more rows
# ℹ 6 more variables: TR033 <dbl>, TR034 <dbl>, TR035 <dbl>, TR038 <dbl>,
#   TR039 <dbl>, TR050 <dbl>
…
shs %>% select(CaseID:InternetYN)

# A tibble: 12,492 × 35
   CaseID WeightC Prov      HHType6 HHSize  P0to4YN P5to17YN P18to24YN P25to64YN
   <chr>    <dbl> <chr+lbl> <chr+l> <chr+l> <chr+l> <chr+lb> <chr+lbl> <chr+lbl>
 1 000010   270.  14 [Atla… 3 [Cou… 4 [4 o… 1 [Yes] 1 [Yes]  2 [No]    1 [Yes]  
 2 000020  1954.  24 [Queb… 3 [Cou… 4 [4 o… 1 [Yes] 1 [Yes]  2 [No]    1 [Yes]  
 3 000030   161.  47 [Sask… 2 [Cou… 2 [2]   2 [No]  2 [No]   2 [No]    1 [Yes]  
 4 000040    50.3 63 [Terr… 2 [Cou… 2 [2]   2 [No]  2 [No]   2 [No]    1 [Yes]  
 5 000050   325.  14 [Atla… 2 [Cou… 2 [2]   2 [No]  2 [No]   2 [No]    2 [No]   
 6 000060  2158.  59 [Brit… 3 [Cou… 4 [4 o… 2 [No]  2 [No]   1 [Yes]   1 [Yes]  
 7 000070  3466.  35 [Onta… 2 [Cou… 2 [2]   2 [No]  2 [No]   2 [No]    1 [Yes]  
 8 000080   704.  48 [Albe… 1 [One… 1 [1]   2 [No]  2 [No]   2 [No]    2 [No]   
 9 000090   345.  14 [Atla… 2 [Cou… 2 [2]   2 [No]  2 [No]   2 [No]    2 [No]   
10 000100   220.  14 [Atla… 1 [One… 1 [1]   2 [No]  2 [No]   2 [No]    2 [No]   
# ℹ 12,482 more rows
# ℹ 26 more variables: P65to74YN <chr+lbl>, P75plusYN <chr+lbl>,
#   NumFT <chr+lbl>, NumPT <chr+lbl>, RP_AgeGrp <chr+lbl>, RP_Sex <chr+lbl>,
#   RP_MarStat <chr+lbl>, RP_Educ <chr+lbl>, RP_EmpStat <chr+lbl>,
#   SP_AgeGrp <chr+lbl>, SP_Sex <chr+lbl>, SP_Educ <chr+lbl>,
#   SP_EmpStat <chr+lbl>, DwelTyp <chr+lbl>, Tenure <chr+lbl>,
#   CondoYN <chr+lbl>, YearBuilt <chr+lbl>, Repairs <chr+lbl>, …

And, you can combine select() methods. So, for example you can select the first variable and anything that contains TR.

shs %>% 
  select(1, contains('TR'))

# A tibble: 12,492 × 18
   CaseID TR001_C TR002_C TR003 TR004 TR008 TR010 TR020_C TR021 TR030_C TR031
   <chr>    <dbl>   <dbl> <dbl> <dbl> <dbl> <dbl>   <dbl> <dbl>   <dbl> <dbl>
 1 000010    1634    1634     0     0     0     0       0     0    1634   170
 2 000020    5927    5927     0     0     0     0       0     0    5927   580
 3 000030    6005    6005     0     0     0     0       0     0    6005  1945
 4 000040    5538    1634     0     0     0     0       0     0    1634    50
 5 000050   13916   13916 12000 12000     0     0       0     0    1916     0
 6 000060   33816   32620 28000 28000     0     0     700   700    3920  3470
 7 000070    6140    4820     0     0     0     0     200   200    4620   120
 8 000080    1467    1467     0     0     0     0       0     0    1467    75
 9 000090    1836    1836     0     0     0     0       0     0    1836     0
10 000100       0       0     0     0     0     0       0     0       0     0
# ℹ 12,482 more rows
# ℹ 7 more variables: TR032 <dbl>, TR033 <dbl>, TR034 <dbl>, TR035 <dbl>,
#   TR038 <dbl>, TR039 <dbl>, TR050 <dbl>
…
nrow(earned_income)

[1] 9709

nrow(shs_subset)

[1] 12492

You could also do something like filter a range of values. Let’s say we just want to include people between 10,000 and $15,000. I’m not going to save this dataset, We’re just going to run this.

shs_subset %>% 
  filter(`Total Income`> 10000& `Total Income` <15000)

# A tibble: 248 × 13
   `Household Type`    `Household Size` `Total Income` `Earned Income` HH_InvInc
   <fct>               <fct>                     <dbl>           <dbl>     <dbl>
 1 One person househo… 1                         12700            4400         0
 2 One person househo… 1                         11025           10500         0
 3 One person househo… 1                         13875           13500         0
 4 One person househo… 1                         10100            8750         0
 5 One person househo… 1                         13200           10000         0
 6 One person househo… 1                         12800            1800         0
 7 One person househo… 1                         12000               0         0
 8 One person househo… 1                         13500               0         0
 9 One person househo… 1                         13800               0         0
10 Couple without chi… 2                         13250               0         0
# ℹ 238 more rows
# ℹ 8 more variables: HH_GovInc <dbl>, HH_OthInc <dbl>, HH_MajIncSrc <fct>,
#   YearBuilt <fct>, DwelTyp <fct>, Prov <fct>, Education <fct>,
#   `Income Taxes` <dbl>

We can also provide some formal criteria. So, here we can filter everyone above the average Household Total Income.

shs_subset %>% 
  filter(`Total Income` > mean(shs_subset$`Total Income`))

# A tibble: 5,033 × 13
   `Household Type`    `Household Size` `Total Income` `Earned Income` HH_InvInc
   <fct>               <fct>                     <dbl>           <dbl>     <dbl>
 1 Couple with childr… 4 or more                100050           94000         0
 2 Couple with childr… 4 or more                114250          109000         0
 3 Couple with childr… 4 or more                133150          132000        50
 4 Couple without chi… 2                        158000          158000         0
 5 Couple without chi… 2                        101000          101000         0
 6 Couple without chi… 2                        235500          234700         0
 7 Couple with childr… 4 or more                168050          153000        50
 8 Couple without chi… 2                        161050           62500     11000
 9 Couple without chi… 2                        102050          102000        50
10 Couple with childr… 3                         86950           70000         0
# ℹ 5,023 more rows
# ℹ 8 more variables: HH_GovInc <dbl>, HH_OthInc <dbl>, HH_MajIncSrc <fct>,
#   YearBuilt <fct>, DwelTyp <fct>, Prov <fct>, Education <fct>,
#   `Income Taxes` <dbl>
…
shs_subset %>% 
filter(., `Household Size`>1)

# A tibble: 0 × 13
# ℹ 13 variables: Household Type <fct>, Household Size <fct>,
#   Total Income <dbl>, Earned Income <dbl>, HH_InvInc <dbl>, HH_GovInc <dbl>,
#   HH_OthInc <dbl>, HH_MajIncSrc <fct>, YearBuilt <fct>, DwelTyp <fct>,
#   Prov <fct>, Education <fct>, Income Taxes <dbl>

We have to use the == operator on factors, pretty much every time.

shs_subset %>% 
  filter(., `Household Size`=="4 or more")

# A tibble: 2,580 × 13
   `Household Type`    `Household Size` `Total Income` `Earned Income` HH_InvInc
   <fct>               <fct>                     <dbl>           <dbl>     <dbl>
 1 Couple with childr… 4 or more                100050           94000         0
 2 Couple with childr… 4 or more                114250          109000         0
 3 Couple with childr… 4 or more                133150          132000        50
 4 Couple with childr… 4 or more                 80225           76050         0
 5 Couple with childr… 4 or more                168050          153000        50
 6 Couple with childr… 4 or more                 65800           39500      9250
 7 Couple with other … 4 or more                116900          104000         0
 8 Lone parent family… 4 or more                 63250           48500         0
 9 Couple with childr… 4 or more                151450          150000       150
10 Couple with childr… 4 or more                 95300           92400         0
# ℹ 2,570 more rows
# ℹ 8 more variables: HH_GovInc <dbl>, HH_OthInc <dbl>, HH_MajIncSrc <fct>,
#   YearBuilt <fct>, DwelTyp <fct>, Prov <fct>, Education <fct>,
#   `Income Taxes` <dbl>

We can still combine the multiple criteria:

shs_subset %>% 
  filter(., `Household Size`=="4 or more" | `Household Size`==1)

# A tibble: 6,023 × 13
   `Household Type`    `Household Size` `Total Income` `Earned Income` HH_InvInc
   <fct>               <fct>                     <dbl>           <dbl>     <dbl>
 1 Couple with childr… 4 or more                100050           94000         0
 2 Couple with childr… 4 or more                114250          109000         0
 3 Couple with childr… 4 or more                133150          132000        50
 4 One person househo… 1                         38300             300         0
 5 One person househo… 1                         18000               0         0
 6 One person househo… 1                         12700            4400         0
 7 One person househo… 1                         32400           31000         0
 8 Couple with childr… 4 or more                 80225           76050         0
 9 Couple with childr… 4 or more                168050          153000        50
10 Couple with childr… 4 or more                 65800           39500      9250
# ℹ 6,013 more rows
# ℹ 8 more variables: HH_GovInc <dbl>, HH_OthInc <dbl>, HH_MajIncSrc <fct>,
#   YearBuilt <fct>, DwelTyp <fct>, Prov <fct>, Education <fct>,
#   `Income Taxes` <dbl>
…
If you want to filter out missing values you put is.na() as a condition. This will return any rows that have missing values for Earned Income.

shs_subset %>% 
  filter(is.na(`Earned Income`)) 

# A tibble: 626 × 13
   `Household Type`    `Household Size` `Total Income` `Earned Income` HH_InvInc
   <fct>               <fct>                     <dbl>           <dbl>     <dbl>
 1 One person househo… 1                         18000              NA         0
 2 Couple without chi… 2                        243000              NA         0
 3 Couple with childr… 4 or more                 98800              NA      1425
 4 Couple without chi… 2                         40600              NA       200
 5 Couple with other … 4 or more                102450              NA         0
 6 One person househo… 1                         31725              NA       275
 7 Couple without chi… 2                            NA              NA         0
 8 One person househo… 1                         18000              NA         0
 9 Couple without chi… 2                         48200              NA         0
10 Lone parent family… 3                         53500              NA         0
# ℹ 616 more rows
# ℹ 8 more variables: HH_GovInc <dbl>, HH_OthInc <dbl>, HH_MajIncSrc <fct>,
#   YearBuilt <fct>, DwelTyp <fct>, Prov <fct>, Education <fct>,
#   `Income Taxes` <dbl>
…
[1] 11866

Filtering using str_detect

One really handy function which we will encounter later in the course is the str_detect function. It, uh, detects ….strings.

So, in the example above, we had to precisely specify 4 or more in order to get it to work. But for some variables, where there are a lot of text heavy values , wouldn’t it be nice to just be able to pick out a phrase that appears in some rows and then keep those. For example, in the variable, Household Type we had a lot of different values, specifically: One person household, Couple without children, Couple with children, Couple with other related or unrelated persons, Lone parent family with no additional persons, Other household with related or unrelated persons.

What if we just want to keep those values that have children. str_detect lets us just look for the string children and it will keep those.

shs_subset %>% 
  filter(str_detect(`Household Type`, "children"))

# A tibble: 6,682 × 13
   `Household Type`    `Household Size` `Total Income` `Earned Income` HH_InvInc
   <fct>               <fct>                     <dbl>           <dbl>     <dbl>
 1 Couple with childr… 4 or more                100050           94000         0
 2 Couple with childr… 4 or more                114250          109000        NA
 3 Couple without chi… 2                            NA               0         0
 4 Couple without chi… 2                         46500               0         0
 5 Couple with childr… 4 or more                133150          132000        50
 6 Couple without chi… 2                        158000          158000         0
 7 Couple without chi… 2                         38000               0         0
 8 Couple without chi… 2                        101000          101000         0
 9 Couple without chi… 2                        235500          234700         0
10 Couple without chi… 2                         75350           24000        NA
# ℹ 6,672 more rows
# ℹ 8 more variables: HH_GovInc <dbl>, HH_OthInc <dbl>, HH_MajIncSrc <fct>,
#   YearBuilt <fct>, DwelTyp <fct>, Prov <fct>, Education <fct>,
#   `Income Taxes` <dbl>

OK, that won’t exactly work, because it’s picking out couples with and without children. But we can just narrow string by specifying that.

shs_subset %>% 
  filter(str_detect(`Household Type`, "with children"))

# A tibble: 3,116 × 13
   `Household Type`    `Household Size` `Total Income` `Earned Income` HH_InvInc
   <fct>               <fct>                     <dbl>           <dbl>     <dbl>
 1 Couple with childr… 4 or more                100050           94000         0
 2 Couple with childr… 4 or more                114250          109000        NA
 3 Couple with childr… 4 or more                133150          132000        50
 4 Couple with childr… 4 or more                 80225           76050        NA
 5 Couple with childr… <NA>                     168050          153000        50
 6 Couple with childr… 3                         86950           70000         0
 7 Couple with childr… 4 or more                 65800           39500      9250
 8 Couple with childr… 3                        246475          187500       250
 9 Couple with childr… 3                        185650          119750       400
10 Couple with childr… 4 or more                151450          150000       150
# ℹ 3,106 more rows
# ℹ 8 more variables: HH_GovInc <dbl>, HH_OthInc <dbl>, HH_MajIncSrc <fct>,
#   YearBuilt <fct>, DwelTyp <fct>, Prov <fct>, Education <fct>,
#   `Income Taxes` <dbl>
…
